{
    "defaultSeverity": "error",
    "extends": ["tslint:latest", "tslint-config-prettier"],
    "jsRules": {},
    "rules": {
      "no-console": false,
      "member-access": false,
      "interface-name": false,
      "ordered-imports": false
    },
    "rulesDirectory": []
  }